{
    "title": "Test resource",
    "allOf": [
        {"$ref": "https://gitlab.com/mjkaye/hal-json-schema/raw/master/hal-schema.json#/definitions/baseResource"},
        {
            "properties": {
                "_links": {
                    "properties": {
                        "self": {
                            "$ref": "https://gitlab.com/mjkaye/hal-json-schema/raw/master/hal-schema.json#/definitions/link"
                        },
                        "type": {
                            "$ref": "https://gitlab.com/mjkaye/hal-json-schema/raw/master/hal-schema.json#/definitions/link"
                        },
                        "children": {
                            "type": "array",
                            "items": {"$ref": "https://gitlab.com/mjkaye/hal-json-schema/raw/master/hal-schema.json#/definitions/link"}
                        }
                    },
                    "required": ["self", "type", "children"]
                },
                "_embedded": {
                    "type": "object",
                    "additionalProperties": {
                        "$ref": "https://gitlab.com/mjkaye/hal-json-schema/raw/master/hal-schema.json#/definitions/halResourceOrHalResourceArray"
                    }
                }
            },
            "required": ["_links"]
        }
    ],
    "$schema": "http://json-schema.org/draft-04/schema#"
}
