{
  "_links": {
    "self": {
      "href": "/testapi/v1/testresource/1/"
    },
    "children": [
      {"href": "/testapi/v1/testresource/2/"},
      {"href": "/testapi/v1/testresource/3/"}
    ],
    "type": {"href": "/testapi/v1/type/1/"}
  },
  "_embedded": {
     "nested": {
       "_links": {
         "self": {
           "href": "/testapi/v1/nested/1/"}
       }
     }
  }
}
